{
    "src":          "/etc/nginx",
    "dest":         "qiniu:access_key=GqDHaa6lOcCyH90Ry5Iscvq-NLe-bU_oOrSdKFqX&secret_key=fXUxMH3vco5B6mKNU-l-mih_PCDPdID3mkbiOuYd&bucket=aliyun-templates&key_prefix=templates/hk/nginx/",
    "deletable":    0,
    "debug_level":  1
}